Santalytics
…
ratings <- read_excel(here::here("data/santalytics/Data/Naughty or Nice Ratings.xlsx"))

glimpse(ratings)

## Observations: 25
## Variables: 3
## $ Classification <chr> "Almost got a present this year - but still naughty!",
## $ Score          <dbl> 1, 2, 3, 4, 5, 6, 7, 8, 9, 10, 11, 12, 13, 14, 15, 16,
## $ Alignment      <chr> "Naughty", "Naughty", "Naughty", "Naughty", "Naughty",

ratings

## # A tibble: 25 x 3
##    Classification                                                Score Alignment
##    <chr>                                                         <dbl> <chr>    
##  1 Almost got a present this year - but still naughty!               1 Naughty  
##  2 Naughty                                                           2 Naughty  
##  3 There's no sugar coating it, this is a naughty listing for s     3 Naughty  
##  4 Bad apple.                                                        4 Naughty  
##  5 Bad to the bone.                                                  5 Naughty  
##  6 Recently moved from naughty list over to my nice list.            6 Nice     
##  7 Nice, but several naughty marks.                                  7 Nice     
##  8 "Even after an \"iffy\" October, still has a \"Nice\" rating     8 Nice     
##  9 Still very much on nice list, but must continue good behavio     9 Nice     
## 10 Nice, but has been naughty at times.                             10 Nice     
## #  with 15 more rows
…
actions <- readRDS(here::here("data/actions.rds"))

glimpse(actions)

## Observations: 1,645,324
## Variables: 5
## $ Date      <dttm> 2016-04-01, 2016-04-01, 2016-04-01, 2016-04-01, 2016-04-01
## $ ID        <chr> "4", "7", "8", "10", "12", "15", "18", "24", "28", "36", "3
## $ Action    <chr> "Flicked a booger", "Didn't use an inside voice whilst indo
## $ Degree    <dbl> 7, 7, 3, 9, 1, 10, 9, 7, 4, 7, 4, 5, 4, 10, 10, 8, 10, 7, 8
## $ Alignment <chr> "Naughty", "Naughty", "Nice", "Naughty", "Nice", "Naughty",

actions

## # A tibble: 1,645,324 x 5
##    Date                ID    Action                             Degree Alignment
##    <dttm>              <chr> <chr>                               <dbl> <chr>    
##  1 2016-04-01 00:00:00 4     Flicked a booger                        7 Naughty  
##  2 2016-04-01 00:00:00 7     Didn't use an inside voice whilst      7 Naughty  
##  3 2016-04-01 00:00:00 8     Stopped to give a stranger direct      3 Nice     
##  4 2016-04-01 00:00:00 10    Cut someone off                         9 Naughty  
##  5 2016-04-01 00:00:00 12    Said please and thank you               1 Nice     
##  6 2016-04-01 00:00:00 15    Forgot to call mom                     10 Naughty  
##  7 2016-04-01 00:00:00 18    Cut someone off                         9 Naughty  
##  8 2016-04-01 00:00:00 24    Rolling stop                            7 Naughty  
##  9 2016-04-01 00:00:00 28    Made someone smile                      4 Nice     
## 10 2016-04-01 00:00:00 36    Flicked a booger                        7 Naughty  
## #  with 1,645,314 more rows

recipients <- read_excel(here::here("data/santalytics/Data/Recipient Database.xlsx"))

glimpse(recipients)

## Observations: 15,000
## Variables: 3
## $ ID    <chr> "1745", "10305", "11179", "3564", "6447", "1161", "5193", "1555
## $ First <chr> "Aaron", "Aaron", "Aaron", "Aaron", "Aaron", "Aaron", "Aaron", 
## $ Last  <chr> "Anderson", "Baker", "Bell", "Bennett", "Bowman", "Bradley", "B

recipients

## # A tibble: 15,000 x 3
##    ID    First Last    
##    <chr> <chr> <chr>   
##  1 1745  Aaron Anderson
##  2 10305 Aaron Baker   
##  3 11179 Aaron Bell    
##  4 3564  Aaron Bennett 
##  5 6447  Aaron Bowman  
##  6 1161  Aaron Bradley 
##  7 5193  Aaron Brooks  
##  8 1555  Aaron Bryant  
##  9 12794 Aaron Carter  
## 10 14869 Aaron Coleman 
## #  with 14,990 more rows
mutate(actions, Degree = ifelse(Alignment == "Naughty", -Degree, Degree)) %>% 
  count(ID, wt = Degree, name = "social_score") %>% 
  mutate(find_out = ifelse(social_score < 0, "naughty", "nice"))  -> surveillance_tally

glimpse(surveillance_tally)

## Observations: 15,000
## Variables: 3
## $ ID           <chr> "1", "10", "100", "1000", "10000", "10001", "10002", "10
## $ social_score <dbl> 127, 64, 47, 64, 91, 33, 50, 145, 81, 216, -1, 86, 21, 1
## $ find_out     <chr> "nice", "nice", "nice", "nice", "nice", "nice", "nice", 

surveillance_tally

## # A tibble: 15,000 x 3
##    ID    social_score find_out
##    <chr>        <dbl> <chr>   
##  1 1              127 nice    
##  2 10              64 nice    
##  3 100             47 nice    
##  4 1000            64 nice    
##  5 10000           91 nice    
##  6 10001           33 nice    
##  7 10002           50 nice    
##  8 10003          145 nice    
##  9 10004           81 nice    
## 10 10005          216 nice    
## #  with 14,990 more rows
…
glimpse(surveillance_tally)

## Observations: 15,000
## Variables: 6
## $ ID           <chr> "13027", "13724", "104", "14658", "11092", "14485", "831
## $ social_score <dbl> -279, -244, -230, -189, -188, -188, -184, -176, -175, -1
## $ find_out     <chr> "naughty", "naughty", "naughty", "naughty", "naughty", "
## $ grp          <fct> 5, 5, 5, 5, 5, 5, 5, 5, 5, 5, 5, 5, 5, 5, 5, 5, 5, 5, 5,
## $ First        <chr> "Willie", "Susan", "Harold", "Larry", "Evelyn", "Fred", 
## $ Last         <chr> "Carr", "Walker", "Bell", "Allen", "Spencer", "James", "

surveillance_tally

## # A tibble: 15,000 x 6
##    ID    social_score find_out grp   First     Last   
##    <chr>        <dbl> <chr>    <fct> <chr>     <chr>  
##  1 13027         -279 naughty  5     Willie    Carr   
##  2 13724         -244 naughty  5     Susan     Walker 
##  3 104           -230 naughty  5     Harold    Bell   
##  4 14658         -189 naughty  5     Larry     Allen  
##  5 11092         -188 naughty  5     Evelyn    Spencer
##  6 14485         -188 naughty  5     Fred      James  
##  7 8310          -184 naughty  5     Katherine Barnes 
##  8 3365          -176 naughty  5     William   Perez  
##  9 14262         -175 naughty  5     Wanda     Burns  
## 10 13601         -168 naughty  5     Ruby      Woods  
## #  with 14,990 more rows
…
glimpse(presents)

## Observations: 2,658
## Variables: 6
## $ Type         <chr> "PHOTO/COMMODITIES", "PHOTO/COMMODITIES", "PHOTO/COMMODI
## $ Subtype      <chr> "BATTERIES", "BATTERIES", "BATTERIES", "BATTERIES", "BAT
## $ Manufacturer <chr> "Duracell", "Duracell", "Duracell", "Energizer", "Durace
## $ Present      <chr> "Duracell - AAA Batteries (4-Pack)", "Duracell - AA 1.5V
## $ Price        <chr> "5.49", "5.49", "7.49", "4.99", "8.99", "9.99", "7.99", 
## $ Weight       <chr> "0.19", "0.32", "0.65", "0.26", "0.46", "1.29", "0.035",

presents

## # A tibble: 2,658 x 6
##    Type       Subtype    Manufacturer Present                       Price Weight
##    <chr>      <chr>      <chr>        <chr>                         <chr> <chr> 
##  1 PHOTO/COM BATTERIES  Duracell     Duracell - AAA Batteries (4- 5.49  0.19  
##  2 PHOTO/COM BATTERIES  Duracell     Duracell - AA 1.5V CopperTop 5.49  0.32  
##  3 PHOTO/COM BATTERIES  Duracell     Duracell - AA Batteries (8-P 7.49  0.65  
##  4 PHOTO/COM BATTERIES  Energizer    Energizer - MAX Batteries AA 4.99  0.26  
##  5 PHOTO/COM BATTERIES  Duracell     Duracell - C Batteries (4-Pa 8.99  0.46  
##  6 PHOTO/COM BATTERIES  Duracell     Duracell - D Batteries (4-Pa 9.99  1.29  
##  7 PHOTO/COM BATTERIES  Duracell     Duracell - 9V Batteries (2-P 7.99  0.035 
##  8 PHOTO/COM DSLR DIGI Canon        Canon - EOS Rebel T5 DSLR Ca 599. 6.3   
##  9 INTERACTI TOY DRONES Protocol     Protocol - TigerJet 3-Channe 39.99 1.42  
## 10 COMPUTERS  MONITORS   BenQ         "BenQ - 27\" LED HD Monitor  329. 19.8  
## #  with 2,648 more rows
…
glimpse(addresses)

## Observations: 15,000
## Variables: 6
## $ `Recipient ID` <chr> "5931", "11472", "10096", "9774", "8885", "5812", "902
## $ Latitude       <dbl> 30.21144, 32.75870, 31.66144, 35.84026, 34.24749, 36.6
## $ Longitude      <dbl> 66.04765, 61.65397, 65.66098, 65.23090, 70.87218, 66.8
## $ City           <chr> "Amnz", "Anr Darah", "Babasakhib", "Bal Chirgh", "
## $ State          <chr> NA, NA, NA, NA, NA, NA, NA, NA, NA, NA, NA, NA, NA, NA
## $ Country        <chr> "Afghanistan", "Afghanistan", "Afghanistan", "Afghanis

addresses

## # A tibble: 15,000 x 6
##    `Recipient ID` Latitude Longitude City           State Country    
##    <chr>             <dbl>     <dbl> <chr>          <chr> <chr>      
##  1 5931               30.2      66.0 Amnz         <NA>  Afghanistan
##  2 11472              32.8      61.7 Anr Darah     <NA>  Afghanistan
##  3 10096              31.7      65.7 Babasakhib     <NA>  Afghanistan
##  4 9774               35.8      65.2 Bal Chirgh    <NA>  Afghanistan
##  5 8885               34.2      70.9 Bsawul        <NA>  Afghanistan
##  6 5812               36.7      66.8 Chimtl        <NA>  Afghanistan
##  7 9028               36.7      66.8 Chimtl        <NA>  Afghanistan
##  8 1855               33.4      66.3 Chowy        <NA>  Afghanistan
##  9 6887               37.2      69.4 Dasht-e Qalah <NA>  Afghanistan
## 10 13733              36.0      67.3 Deh           <NA>  Afghanistan
## #  with 14,990 more rows
…
hub_groups %>% 
  left_join(max_wt, "grp") %>% 
  count(delivery_group, wt = Weight, name = "min_weight") %>% 
  as_tibble() %>% 
  select(-geometry) -> min_weights

min_weights

## # A tibble: 336 x 2
##    delivery_group min_weight
##             <int>      <dbl>
##  1              1     19440.
##  2              2     12765.
##  3              3     11002.
##  4              4     10127.
##  5              5      9282.
##  6              6      8784.
##  7              7      8800.
##  8              8      6512.
##  9              9      5420.
## 10             10      6581.
## #  with 326 more rows
…
